…
### Search license information


```r
cr_licenses(query = 'elsevier')
#> $meta
#>   total_results search_terms start_index items_per_page
#> 1            35     elsevier           0             20
#> 
#> $data
#> # A tibble: 35 x 2
#>    URL                                                      work.count
#>    <chr>                                                         <int>
#>  1 http://aspb.org/publications/aspb-journals/open-articles          1
#>  2 http://creativecommons.org/licenses/by-nc-nd/3.0/                12
#>  3 http://creativecommons.org/licenses/by-nc-nd/4.0/                 8
#>  4 http://creativecommons.org/licenses/by-nc/4.0/                    2
#>  5 http://creativecommons.org/licenses/by/2.0                        1
#>  6 http://creativecommons.org/licenses/by/3.0/                       1
#>  7 http://creativecommons.org/licenses/by/3.0/igo/                   1
#>  8 http://creativecommons.org/licenses/by/4.0                        8
#>  9 http://creativecommons.org/licenses/by/4.0/                      10
#> 10 http://doi.wiley.com/10.1002/tdm_license_1                      155
#> # … with 25 more rows
```
…
From the output of `cr_works` we can get full text links if we know where to look:


```r
do.call("rbind", out$data$link)
#> # A tibble: 53 x 4
#>    URL                       content.type content.version intended.applica…
#>    <chr>                     <chr>        <chr>           <chr>            
#>  1 http://link.aps.org/arti… unspecified  vor             syndication      
#>  2 http://harvest.aps.org/v… unspecified  vor             similarity-check…
#>  3 https://api.elsevier.com… text/xml     vor             text-mining      
#>  4 https://api.elsevier.com… text/plain   vor             text-mining      
#>  5 http://www.clim-past-dis… unspecified  vor             similarity-check…
#>  6 http://downloads.hindawi… application… vor             text-mining      
#>  7 http://downloads.hindawi… application… vor             text-mining      
#>  8 http://downloads.hindawi… unspecified  vor             similarity-check…
#>  9 http://link.aps.org/arti… unspecified  vor             syndication      
#> 10 http://harvest.aps.org/v… unspecified  vor             similarity-check…
#> # … with 43 more rows
```
…
