…
### Search license information


```r
cr_licenses(query = 'elsevier')
```

```
#> $meta
#>   total_results search_terms start_index items_per_page
#> 1            25     elsevier           0             20
#> 
#> $data
#> # A tibble: 25 x 2
#>    URL                                                      work.count
#>    <chr>                                                         <int>
#>  1 http://aspb.org/publications/aspb-journals/open-articles          1
#>  2 http://creativecommons.org/licenses/by-nc-nd/3.0/                13
#>  3 http://creativecommons.org/licenses/by-nc-nd/4.0/                 8
#>  4 http://creativecommons.org/licenses/by-nc/4.0/                    2
#>  5 http://creativecommons.org/licenses/by/3.0/                       1
#>  6 http://creativecommons.org/licenses/by/4.0                        2
#>  7 http://creativecommons.org/licenses/by/4.0/                       2
#>  8 http://doi.wiley.com/10.1002/tdm_license_1                      157
#>  9 http://doi.wiley.com/10.1002/tdm_license_1.1                   2175
#> 10 http://journals.iucr.org/services/copyrightpolicy.html           10
#> # ... with 15 more rows
```
…
